Social network analysis
…
The original dataset comes in a .txt with some descriptive metadata on top. We need to read the raw file and clean it a bit before we can start

raw_file <- read_delim('data/ca-GrQc.txt',delim = '\t',skip = 3) %>% clean_names(replace= c('#'=''))

Rows: 28980 Columns: 2
── Column specification ────────────────────────────────────────────────────────
Delimiter: "\t"
dbl (2): # FromNodeId, ToNodeId

ℹ Use `spec()` to retrieve the full column specification for this data.
ℹ Specify the column types or set `show_col_types = FALSE` to quiet this message.

raw_file

# A tibble: 28,980 × 2
   from_node_id to_node_id
          <dbl>      <dbl>
 1         3466        937
 2         3466       5233
 3         3466       8579
 4         3466      10310
 5         3466      15931
 6         3466      17038
 7         3466      18720
 8         3466      19607
 9        10310       1854
10        10310       3466
# ℹ 28,970 more rows
…
eigen_centrality(g)$vector %>% sample(10)

       25615         4135        24504         2749         8441         2917 
2.997766e-06 6.841747e-06 6.270955e-19 7.939951e-19 2.417558e-05 1.892610e-09 
       15316        12066        22254          373 
2.577182e-04 1.434977e-06 1.137208e-09 6.873164e-19 

If we combine all these, we can build a dataframe with the different centrality measures

centrality_metrics <- tibble(node= V(g)$name,degree=degree(g), betweenness= betweenness(g), closeness=closeness(g), eigen_centrality= eigen_centrality(g)$vector) 

centrality_metrics %>% 
  arrange(-degree)

# A tibble: 5,242 × 5
   node  degree betweenness closeness eigen_centrality
   <chr>  <dbl>       <dbl>     <dbl>            <dbl>
 1 21012    162     159961. 0.0000566            1    
 2 21281    158     132408. 0.0000542            0.951
 3 22691    154     134247. 0.0000560            0.945
 4 12365    154     154195. 0.0000562            0.984
 5 6610     136     175302. 0.0000552            0.943
 6 9785     136      99625. 0.0000540            0.970
 7 21508    134      44325. 0.0000538            0.972
 8 17655    132     247146. 0.0000573            0.953
 9 2741     130      80549. 0.0000557            0.987
10 19423    126      97418. 0.0000540            0.950
# ℹ 5,232 more rows
…
