Tidyverse + Dataviz
…
Guided practice

Complex data wrangling with Tidyverse

Importing the dataset: COVID-19 in USA

In this guided practice, we will see how to make complex data transformations with tidyverse. We will work with the COVID-19 cases in USA dataset at state level. First, let’s read the dataframe.

library(tidyverse)

data <- read_csv("./data/asec/us_states_covid19_daily.csv")

data

# A tibble: 15,633 × 55
       date state positive probableCases negative pending totalTestResultsSource
      <dbl> <chr>    <dbl>         <dbl>    <dbl>   <dbl> <chr>                 
 1 20201206 AK       35720            NA  1042056      NA totalTestsViral       
 2 20201206 AL      269877         45962  1421126      NA totalTestsPeopleViral 
 3 20201206 AR      170924         22753  1614979      NA totalTestsViral       
 4 20201206 AS           0            NA     2140      NA totalTestsViral       
 5 20201206 AZ      364276         12590  2018813      NA totalTestsPeopleViral 
 6 20201206 CA     1341700            NA 23853346      NA totalTestsViral       
 7 20201206 CO      260581         11069  1608829      NA totalTestEncountersVi…
 8 20201206 CT      127715          8131  3294383      NA posNeg                
 9 20201206 DC       23136            NA   711497      NA totalTestEncountersVi…
10 20201206 DE       39912          1550   400854      NA totalTestEncountersVi…
# ℹ 15,623 more rows
# ℹ 48 more variables: totalTestResults <dbl>, hospitalizedCurrently <dbl>,
#   hospitalizedCumulative <dbl>, inIcuCurrently <dbl>, inIcuCumulative <dbl>,
#   onVentilatorCurrently <dbl>, onVentilatorCumulative <dbl>, recovered <dbl>,
#   dataQualityGrade <chr>, lastUpdateEt <chr>, dateModified <dttm>,
#   checkTimeEt <chr>, death <dbl>, hospitalized <dbl>, dateChecked <dttm>,
#   totalTestsViral <dbl>, positiveTestsViral <dbl>, …
…
mdy("March 28th, 2023")

[1] "2023-03-28"

We could also be interested in creating columns extracting year, month and day in separate variables.

data %>% 
  mutate(year = year(date),
         month = month(date),
         day = day(date)) %>%
  select(date, 
         year:day, 
         state:totalTestsAntigen)

# A tibble: 15,633 × 14
   date        year month   day state positive probable_cases negative
   <date>     <dbl> <dbl> <int> <chr>    <dbl>          <dbl>    <dbl>
 1 2020-12-06  2020    12     6 AK       35720             NA  1042056
 2 2020-12-06  2020    12     6 AL      269877          45962  1421126
 3 2020-12-06  2020    12     6 AR      170924          22753  1614979
 4 2020-12-06  2020    12     6 AS           0             NA     2140
 5 2020-12-06  2020    12     6 AZ      364276          12590  2018813
 6 2020-12-06  2020    12     6 CA     1341700             NA 23853346
 7 2020-12-06  2020    12     6 CO      260581          11069  1608829
 8 2020-12-06  2020    12     6 CT      127715           8131  3294383
 9 2020-12-06  2020    12     6 DC       23136             NA   711497
10 2020-12-06  2020    12     6 DE       39912           1550   400854
# ℹ 15,623 more rows
# ℹ 6 more variables: totalTestsViral <dbl>, totalTestsPeopleViral <dbl>,
#   totalTestsAntibody <dbl>, totalTestsPeopleAntibody <dbl>,
#   totalTestsPeopleAntigen <dbl>, totalTestsAntigen <dbl>
…
totalTestsAntibody: Total number of completed antibody tests as reported by the state or territory.

totalTestsPeopleAntibody:The total number of unique people who have been tested at least once via antibody testing as reported by the state or territory.

totalTestsAntigen: Total number of completed antigen tests, as reported by the state or territory.

totalTestsPeopleAntigen: Total number of unique people who have been tested at least once via antigen testing, as reported by the state or territory

According to this documentation, the total number of tests should include the total number of people who were tested. However, some states didn’t register the information like so. Take for example Arizona:

data %>% 
  filter(state == "AZ")

# A tibble: 278 × 11
   date       state positive probable_cases negative totalTestsViral
   <date>     <chr>    <dbl>          <dbl>    <dbl>           <dbl>
 1 2020-12-06 AZ      364276          12590  2018813              NA
 2 2020-12-05 AZ      358900          12139  2003152              NA
 3 2020-12-04 AZ      352101          11634  1986277              NA
 4 2020-12-03 AZ      346421          11173  1969836              NA
 5 2020-12-02 AZ      340979          10662  1957887              NA
 6 2020-12-01 AZ      337139          10301  1945076              NA
 7 2020-11-30 AZ      326817          10077  1936949              NA
 8 2020-11-29 AZ      325995           9989  1920319              NA
 9 2020-11-28 AZ      322774           9909  1905019              NA
10 2020-11-27 AZ      318638           9772  1894651              NA
# ℹ 268 more rows
# ℹ 5 more variables: totalTestsPeopleViral <dbl>, totalTestsAntibody <dbl>,
#   totalTestsPeopleAntibody <dbl>, totalTestsPeopleAntigen <dbl>,
#   totalTestsAntigen <dbl>
…
Reshaping and summarizing data

Now, we can use transformations to summarize and get aggregated information from our data. For example,

In order to get this information, we need to reshape our tidy, wide data into a long format. We will do this with the function pivot_longer().

test_data <- data %>%
  select(date, state, starts_with("totalTests")) %>%
  pivot_longer(cols = contains("totalTests"),
                      names_to = "type_test",
                      values_to = "n") 

test_data

# A tibble: 93,798 × 4
   date       state type_test                      n
   <date>     <chr> <chr>                      <dbl>
 1 2020-12-06 AK    totalTestsViral          1077776
 2 2020-12-06 AK    totalTestsPeopleViral         NA
 3 2020-12-06 AK    totalTestsAntibody            NA
 4 2020-12-06 AK    totalTestsPeopleAntibody      NA
 5 2020-12-06 AK    totalTestsPeopleAntigen       NA
 6 2020-12-06 AK    totalTestsAntigen             NA
 7 2020-12-06 AL    totalTestsViral               NA
 8 2020-12-06 AL    totalTestsPeopleViral    1645041
 9 2020-12-06 AL    totalTestsAntibody         74784
10 2020-12-06 AL    totalTestsPeopleAntibody   74784
# ℹ 93,788 more rows
…
test_data <- test_data %>% filter(!str_detect(type_test, "totalTestsPeople"))

Before proceeding with the summary, we will rename our type_test variables to more comprehensible names.

test_data <- test_data %>% mutate_at(vars(type_test), 
                        ~case_when(
                          . == "totalTestsViral" ~ "PCR",
                          . == "totalTestsAntibody" ~ "Antibody",
                          . == "totalTestsAntigen" ~ "Antigen"
                        ))

test_data

# A tibble: 46,899 × 4
   date       state type_test       n
   <date>     <chr> <chr>       <dbl>
 1 2020-12-06 AK    PCR       1077776
 2 2020-12-06 AK    Antibody       NA
 3 2020-12-06 AK    Antigen        NA
 4 2020-12-06 AL    PCR            NA
 5 2020-12-06 AL    Antibody    74784
 6 2020-12-06 AL    Antigen        NA
 7 2020-12-06 AR    PCR       1763150
 8 2020-12-06 AR    Antibody       NA
 9 2020-12-06 AR    Antigen     21856
10 2020-12-06 AS    PCR          2140
# ℹ 46,889 more rows
…
group_by(): we will pass the names of the variables we want to use as grouping criteria, in our case state and type_test.

summarise(): this is a function that is used to compute summary statistics for a group of data. First, we need to set the name of the output variable. We will use total_n. Then, we need to apply the summary statistic we want to use. In our case, we want to get the sum() of the values in n for each group. Since our dataset has many NA values in the column we want to add, we will set the parameter na.rm = TRUE, so these values are removed.

grouped_data <- test_data %>%
  group_by(state, type_test) %>%
  summarise(total_n = sum(n, na.rm = TRUE))

`summarise()` has grouped output by 'state'. You can override using the
`.groups` argument.

grouped_data

# A tibble: 168 × 3
# Groups:   state [56]
   state type_test   total_n
   <chr> <chr>         <dbl>
 1 AK    Antibody          0
 2 AK    Antigen           0
 3 AK    PCR        78690463
 4 AL    Antibody    6090878
 5 AL    Antigen           0
 6 AL    PCR               0
 7 AR    Antibody          0
 8 AR    Antigen     2261053
 9 AR    PCR       159758326
10 AS    Antibody          0
# ℹ 158 more rows
…
county_data contains information regarding daily cases and deaths per county in the US. First, we will get the total counts of both cases and deaths in 2020, grouping the information.

grouped_county <- county_data %>% 
  group_by(county, state, fips) %>%
  summarise(total_cases = sum(cases, na.rm = T),
            total_deaths = sum(deaths, na.rm = T))

`summarise()` has grouped output by 'county', 'state'. You can override using
the `.groups` argument.

grouped_county %>%
  arrange(-total_cases)

# A tibble: 3,272 × 5
# Groups:   county, state [3,272]
   county        state       fips total_cases total_deaths
   <chr>         <chr>      <dbl>       <dbl>        <dbl>
 1 New York City New York      NA    56135658      5331870
 2 Los Angeles   California  6037    44307464      1102330
 3 Cook          Illinois   17031    29910215      1069364
 4 Miami-Dade    Florida    12086    26008017       476285
 5 Maricopa      Arizona     4013    22970785       489299
 6 Harris        Texas      48201    20161359       350475
 7 Dallas        Texas      48113    13506071       175342
 8 Broward       Florida    12011    11924547       208330
 9 Nassau        New York   36059    10754300       560451
10 Clark         Nevada     32003    10742491       210297
# ℹ 3,262 more rows

Take a look at the census data:

census_2017

# A tibble: 3,220 × 37
   CountyId State County TotalPop   Men  Women Hispanic White Black Native Asian
      <dbl> <chr> <chr>     <dbl> <dbl>  <dbl>    <dbl> <dbl> <dbl>  <dbl> <dbl>
 1     1001 Alab… Autau…    55036 26899  28137      2.7  75.4  18.9    0.3   0.9
 2     1003 Alab… Baldw…   203360 99527 103833      4.4  83.1   9.5    0.8   0.7
 3     1005 Alab… Barbo…    26201 13976  12225      4.2  45.7  47.8    0.2   0.6
 4     1007 Alab… Bibb …    22580 12251  10329      2.4  74.6  22      0.4   0  
 5     1009 Alab… Bloun…    57667 28490  29177      9    87.4   1.5    0.3   0.1
 6     1011 Alab… Bullo…    10478  5616   4862      0.3  21.6  75.6    1     0.7
 7     1013 Alab… Butle…    20126  9416  10710      0.3  52.2  44.7    0.1   1.1
 8     1015 Alab… Calho…   115527 55593  59934      3.6  72.7  20.4    0.2   1  
 9     1017 Alab… Chamb…    33895 16320  17575      2.2  56.2  39.3    0.3   1  
10     1019 Alab… Chero…    25855 12862  12993      1.6  91.8   5      0.5   0.1
# ℹ 3,210 more rows
# ℹ 26 more variables: Pacific <dbl>, VotingAgeCitizen <dbl>, Income <dbl>,
#   IncomeErr <dbl>, IncomePerCap <dbl>, IncomePerCapErr <dbl>, Poverty <dbl>,
#   ChildPoverty <dbl>, Professional <dbl>, Service <dbl>, Office <dbl>,
#   Construction <dbl>, Production <dbl>, Drive <dbl>, Carpool <dbl>,
#   Transit <dbl>, Walk <dbl>, OtherTransp <dbl>, WorkAtHome <dbl>,
#   MeanCommute <dbl>, Employed <dbl>, PrivateWork <dbl>, PublicWork <dbl>, …

The variables we want to keep are: CountyId (which is the same as the FIPS code seen in county_data), TotalPop and Black.

census_subset <- census_2017 %>% select(CountyId, TotalPop, Black)

We can join the census data information with our COVID cases data, by FIPS code. Since some of the counties in our dataset do not contain this code, we will perform an inner_join in order to remove these cases. Of course, for a serious analysis, it would be necessary to check which counties are being ignored and what could be the consequences of this.

joined_county <- grouped_county %>% 
  inner_join(census_subset, 
             by = c("fips" = "CountyId"))

joined_county

# A tibble: 3,212 × 7
# Groups:   county, state [3,212]
   county    state           fips total_cases total_deaths TotalPop Black
   <chr>     <chr>          <dbl>       <dbl>        <dbl>    <dbl> <dbl>
 1 Abbeville South Carolina 45001       89140         1853    24788  27.6
 2 Acadia    Louisiana      22001      470146        15640    62607  17.6
 3 Accomack  Virginia       51001      235243         3556    32840  28.3
 4 Ada       Idaho          16001     2148289        22346   435117   1.2
 5 Adair     Iowa           19001       20625          268     7192   0.3
 6 Adair     Kentucky       21001       71324         4544    19304   3.6
 7 Adair     Missouri       29001       70376           62    25437   2.4
 8 Adair     Oklahoma       40001      100180         1671    22136   0.3
 9 Adams     Colorado        8001     2028063        43638   487850   3  
10 Adams     Idaho          16003        6586          166     3946   0.3
# ℹ 3,202 more rows

We want to look at the relationship between COVID cases and proportion of black population in each county. We can’t base this information on absolute number of cases. Counties with a larger population will contain a larger number of COVID cases, so we have to control this information by county. Although the data is from 2017, it is still an useful way to control the proportion of historically big and small counties.

joined_county <- joined_county %>% 
  mutate(cases_pop = total_cases/TotalPop,
         deaths_pop = total_deaths/TotalPop) 

joined_county %>%
  arrange(-deaths_pop)

# A tibble: 3,212 × 9
# Groups:   county, state [3,212]
   county         state   fips total_cases total_deaths TotalPop Black cases_pop
   <chr>          <chr>  <dbl>       <dbl>        <dbl>    <dbl> <dbl>     <dbl>
 1 Hancock        Georg… 13141       69015         7503     8667  72.9      7.96
 2 Randolph       Georg… 13243       63300         5957     7206  59.7      8.78
 3 Terrell        Georg… 13273       68844         6793     8978  60.6      7.67
 4 Early          Georg… 13099       94266         7263    10405  50.5      9.06
 5 Emporia city   Virgi… 51595       42697         3726     5495  64.3      7.77
 6 Galax city     Virgi… 51640       72124         4377     6788   7.2     10.6 
 7 McKinley       New M… 35031      869589        44943    72849   0.5     11.9 
 8 Neshoba        Missi… 28099      287790        18099    29437  20.9      9.78
 9 Essex          New J… 34013     4975781       454376   800401  38.8      6.22
10 East Feliciana Louis… 22037      220597        11087    19553  44.4     11.3 
# ℹ 3,202 more rows
# ℹ 1 more variable: deaths_pop <dbl>
…
